%YAML 1.1
%TAG !u! tag:unity3d.com,2011:
--- !u!1045 &1
EditorBuildSettings:
  m_ObjectHideFlags: 0
  serializedVersion: 2
  m_Scenes:
  - enabled: 1
    path: Assets/Scene/title_s.unity
  - enabled: 1
    path: Assets/Scene/main_pazlu.unity
  - enabled: 0
    path: Assets/Scene/title.unity
  - enabled: 0
    path: Assets/Scene/clear.unity
  - enabled: 0
    path: Assets/Scene/title.unity
  - enabled: 0
    path: Assets/Scene/title.unity
  - enabled: 0
    path: Assets/Scene/main_pazlu.unity
